…
    ## - [OK] 'time' has desired class character.
    ## - [OK] 'time_weeks' has desired class numeric.
    ## - [OK] 'rating' has desired class character.
    ## - [OK] 'mean_arm1' has desired class numeric.
    ## - [OK] 'mean_arm2' has desired class numeric.
    ## - [OK] 'sd_arm1' has desired class numeric.
    ## - [OK] 'sd_arm2' has desired class numeric.
    ## - [OK] 'n_arm1' has desired class numeric.
    ## - [OK] 'n_arm2' has desired class numeric.
    ## - [OK] 'event_arm1' has desired class numeric.
    ## - [OK] 'event_arm2' has desired class numeric.
    ## - [OK] 'totaln_arm1' has desired class numeric.
    ## - [OK] 'totaln_arm2' has desired class numeric.

    ## # A tibble: 317 × 59
    ##    study        condition_arm1 condition_arm2 multi_arm1 multi_arm2 outcome_type
    ##    <chr>        <chr>          <chr>          <chr>      <chr>      <chr>       
    ##  1 Rosenblat 2… psil           wl             <NA>       <NA>       change      
    ##  2 Rosenblat 2… psil           wl             <NA>       <NA>       change      
    ##  3 Rosenblat 2… psil           wl             <NA>       <NA>       change      
    ##  4 Raison 2023  psil           ncn            <NA>       <NA>       change      
    ##  5 Raison 2023  psil           ncn            <NA>       <NA>       change      
    ##  6 Raison 2023  psil           ncn            <NA>       <NA>       change      
    ##  7 Raison 2023  psil           ncn            <NA>       <NA>       change      
    ##  8 Raison 2023  psil           ncn            <NA>       <NA>       change      
    ##  9 Raison 2023  psil           ncn            <NA>       <NA>       change      
    ## 10 Raison 2023  psil           ncn            <NA>       <NA>       change      
    ## # ℹ 307 more rows
    ## # ℹ 53 more variables: instrument <chr>, rating <chr>,
    ## #   instrument_symptom <chr>, primary_instrument <dbl>, cov_time_point <chr>,
    ## #   time <chr>, time_weeks <dbl>, time_days <dbl>, primary_timepoint <dbl>,
    ## #   n_arm1 <dbl>, mean_arm1 <dbl>, sd_arm1 <dbl>, n_arm2 <dbl>,
    ## #   mean_arm2 <dbl>, sd_arm2 <dbl>, n_change_arm1 <dbl>,
    ## #   mean_change_arm1 <dbl>, sd_change_arm1 <dbl>, n_change_arm2 <dbl>, …
…
